ALU/simulation/qsim/alu.msim.vcd
$comment
	File created using the following command:
		vcd file alu.msim.vcd -direction
$end
$date
	Thu Apr 01 23:20:39 2021
$end
$version
	ModelSim Version 10.1d
$end
$timescale
	1ps
$end
$scope module alu_vlg_vec_tst $end
$var reg 8 ! A [7:0] $end
$var reg 8 " B [7:0] $end
$var reg 3 # Sel [2:0] $end
$var wire 1 $ NZVC [3] $end
$var wire 1 % NZVC [2] $end
$var wire 1 & NZVC [1] $end
$var wire 1 ' NZVC [0] $end
$var wire 1 ( Result [7] $end
$var wire 1 ) Result [6] $end
$var wire 1 * Result [5] $end
$var wire 1 + Result [4] $end
$var wire 1 , Result [3] $end
$var wire 1 - Result [2] $end
$var wire 1 . Result [1] $end
$var wire 1 / Result [0] $end
$var wire 1 0 sampler $end
$scope module i1 $end
$var wire 1 1 gnd $end
$var wire 1 2 vcc $end
$var wire 1 3 unknown $end
$var tri1 1 4 devclrn $end
$var tri1 1 5 devpor $end
$var tri1 1 6 devoe $end
$var wire 1 7 Result[0]~output_o $end
$var wire 1 8 Result[1]~output_o $end
$var wire 1 9 Result[2]~output_o $end
$var wire 1 : Result[3]~output_o $end
$var wire 1 ; Result[4]~output_o $end
$var wire 1 < Result[5]~output_o $end
$var wire 1 = Result[6]~output_o $end
$var wire 1 > Result[7]~output_o $end
$var wire 1 ? NZVC[0]~output_o $end
$var wire 1 @ NZVC[1]~output_o $end
$var wire 1 A NZVC[2]~output_o $end
$var wire 1 B NZVC[3]~output_o $end
$var wire 1 C A[0]~input_o $end
$var wire 1 D B[0]~input_o $end
$var wire 1 E Add1~0_combout $end
$var wire 1 F Add0~0_combout $end
$var wire 1 G Sel[1]~input_o $end
$var wire 1 H Result[0]~0_combout $end
$var wire 1 I Sel[2]~input_o $end
$var wire 1 J Sel[0]~input_o $end
$var wire 1 K Equal0~0_combout $end
$var wire 1 L Equal0~0clkctrl_outclk $end
$var wire 1 M Result[0]$latch~combout $end
$var wire 1 N B[1]~input_o $end
$var wire 1 O A[1]~input_o $end
$var wire 1 P Add1~1 $end
$var wire 1 Q Add1~2_combout $end
$var wire 1 R Add0~1 $end
$var wire 1 S Add0~2_combout $end
$var wire 1 T Result[1]~1_combout $end
$var wire 1 U Result[1]$latch~combout $end
$var wire 1 V A[2]~input_o $end
$var wire 1 W B[2]~input_o $end
$var wire 1 X Add0~3 $end
$var wire 1 Y Add0~4_combout $end
$var wire 1 Z Add1~3 $end
$var wire 1 [ Add1~4_combout $end
$var wire 1 \ Result[2]~2_combout $end
$var wire 1 ] Result[2]$latch~combout $end
$var wire 1 ^ A[3]~input_o $end
$var wire 1 _ B[3]~input_o $end
$var wire 1 ` Add0~5 $end
$var wire 1 a Add0~6_combout $end
$var wire 1 b Add1~5 $end
$var wire 1 c Add1~6_combout $end
$var wire 1 d Result[3]~3_combout $end
$var wire 1 e Result[3]$latch~combout $end
$var wire 1 f B[4]~input_o $end
$var wire 1 g A[4]~input_o $end
$var wire 1 h Add1~7 $end
$var wire 1 i Add1~8_combout $end
$var wire 1 j Add0~7 $end
$var wire 1 k Add0~8_combout $end
$var wire 1 l Result[4]~4_combout $end
$var wire 1 m Result[4]$latch~combout $end
$var wire 1 n A[5]~input_o $end
$var wire 1 o B[5]~input_o $end
$var wire 1 p Add1~9 $end
$var wire 1 q Add1~10_combout $end
$var wire 1 r Add0~9 $end
$var wire 1 s Add0~10_combout $end
$var wire 1 t Result[5]~5_combout $end
$var wire 1 u Result[5]$latch~combout $end
$var wire 1 v A[6]~input_o $end
$var wire 1 w B[6]~input_o $end
$var wire 1 x Add1~11 $end
$var wire 1 y Add1~12_combout $end
$var wire 1 z Add0~11 $end
$var wire 1 { Add0~12_combout $end
$var wire 1 | Result[6]~6_combout $end
$var wire 1 } Result[6]$latch~combout $end
$var wire 1 ~ A[7]~input_o $end
$var wire 1 !! B[7]~input_o $end
$var wire 1 "! Add0~13 $end
$var wire 1 #! Add0~14_combout $end
$var wire 1 $! Add1~13 $end
$var wire 1 %! Add1~14_combout $end
$var wire 1 &! Result[7]~7_combout $end
$var wire 1 '! Result[7]$latch~combout $end
$var wire 1 (! Add0~15 $end
$var wire 1 )! Add0~16_combout $end
$var wire 1 *! LessThan0~1_cout $end
$var wire 1 +! LessThan0~3_cout $end
$var wire 1 ,! LessThan0~5_cout $end
$var wire 1 -! LessThan0~7_cout $end
$var wire 1 .! LessThan0~9_cout $end
$var wire 1 /! LessThan0~11_cout $end
$var wire 1 0! LessThan0~13_cout $end
$var wire 1 1! LessThan0~14_combout $end
$var wire 1 2! NZVC[0]~0_combout $end
$var wire 1 3! NZVC[0]$latch~combout $end
$var wire 1 4! Equal0~1_combout $end
$var wire 1 5! ALU_PROCESS:Sum_uns[7]~combout $end
$var wire 1 6! NZVC[1]~1_combout $end
$var wire 1 7! NZVC[1]~2_combout $end
$var wire 1 8! NZVC[1]$latch~combout $end
$var wire 1 9! NZVC[2]~7_combout $end
$var wire 1 :! NZVC[2]~6_combout $end
$var wire 1 ;! NZVC[2]~3_combout $end
$var wire 1 <! NZVC[2]~4_combout $end
$var wire 1 =! NZVC[2]~5_combout $end
$var wire 1 >! NZVC[2]~8_combout $end
$var wire 1 ?! NZVC[2]$latch~combout $end
$upscope $end
$upscope $end
$enddefinitions $end
#0
$dumpvars
b10011011 !
b11001000 "
b0 #
1'
1&
0%
0$
1/
1.
0-
0,
0+
1*
1)
0(
x0
01
12
x3
14
15
16
17
18
09
0:
0;
1<
1=
0>
1?
1@
0A
0B
1C
0D
1E
1F
0G
1H
0I
0J
1K
1L
1M
0N
1O
1P
1Q
0R
1S
1T
1U
0V
0W
1X
0Y
0Z
0[
0\
0]
1^
1_
0`
0a
1b
0c
0d
0e
0f
1g
0h
1i
0j
0k
0l
0m
0n
0o
1p
0q
1r
1s
1t
1u
0v
1w
0x
1y
1z
1{
1|
1}
1~
1!!
0"!
0#!
0$!
1%!
0&!
0'!
0(!
1)!
0*!
1+!
0,!
1-!
0.!
1/!
10!
11!
12!
13!
14!
05!
06!
07!
18!
09!
0:!
0;!
0<!
0=!
0>!
0?!
$end
#10000
b11011011 !
b11111011 !
b11110011 !
b11110001 !
b11110000 !
b10001000 "
b10011000 "
b10010000 "
b10010100 "
b10010110 "
1N
1W
0_
1f
0w
0C
0O
0^
1n
1v
00
0+!
1Z
1,!
0b
1[
1Y
1j
1k
0i
00!
1$!
0F
0E
0z
0s
1q
0[
0-!
1h
1c
1\
0k
1l
01!
0%!
0H
1"!
0{
0t
1.!
0p
1i
1<!
0l
1#!
0|
1]
1m
0M
0u
0q
16!
15!
1&!
19
1;
07
0<
1-
1+
0/
0*
0m
0}
17!
0;
0=
0+
0)
1'!
1B
1>
1$
1(
08!
0@
0&
#20000
b1110000 !
b1100000 !
b1100100 !
b10011110 "
b10011100 "
0N
1_
1V
0g
0~
10
1+!
0S
0Z
0Q
0c
1a
1[
1`
0Y
0r
1k
0i
11!
1%!
0#!
0,!
1;!
0T
1b
0[
1d
0<!
0\
0j
0a
1z
1s
1l
0&!
06!
05!
1c
1r
0k
0d
0"!
1{
1t
0U
1e
0]
1m
0'!
0z
0s
0l
1(!
1#!
1|
08
1:
09
1;
0B
0>
0.
1,
0-
1+
0$
0(
0e
1u
1"!
0{
0t
0)!
16!
15!
1&!
0:
1<
0,
1*
0m
1}
0(!
0#!
1<!
0|
02!
0;
1=
0+
1)
0u
1'!
1)!
1=!
06!
05!
0&!
0<
1B
1>
0*
1$
1(
0}
03!
12!
1>!
0=
0?
0)
0'
0'!
0B
0>
0$
0(
13!
1?!
1?
1A
1'
1%
#30000
b11100 "
b100100 !
b101100 !
b1011100 "
b1001100 "
b1001000 "
b101000 !
b1000000 "
0V
1^
0v
0W
0_
0f
1w
0!!
00
0`
1-!
0h
10!
0$!
0r
1k
1i
01!
0%!
1(!
1#!
1j
1a
0.!
1p
0i
11!
1%!
1z
1s
0<!
1l
1&!
0)!
0=!
16!
15!
0k
1d
1q
02!
0>!
0"!
1{
1t
07!
1m
1'!
0l
0#!
1|
1;
1B
1>
1+
1$
1(
1e
03!
0?!
1u
18!
06!
05!
0&!
1:
0?
0A
1<
1@
1,
0'
0%
1*
1&
0m
1}
17!
0;
1=
0+
1)
0'!
0B
0>
0$
0(
08!
0@
0&
#40000
b1000001 "
b101001 !
b1000011 "
b1101001 !
b1100001 !
b11 "
b10011 "
b1100101 !
b11011 "
1C
1V
0^
1v
1D
1N
1_
1f
0w
10
1R
1[
1Y
0-!
1h
00!
1$!
0+!
1S
1Z
1Q
1.!
1k
0p
1i
0X
0S
1\
0;!
0i
01!
0%!
1T
0[
1l
0q
1`
0Y
0T
1]
1U
1m
0j
0a
1;!
0\
19
18
1;
1-
1.
1+
0U
1r
0k
0d
08
0.
0]
0z
0s
0l
09
0-
0e
1"!
0{
0t
0:
0,
0m
1#!
1<!
0|
0;
0+
0u
16!
15!
1&!
0<
0*
0}
07!
0=
0)
1'!
1B
1>
1$
1(
18!
1@
1&
#50000
b10 #
b1000101 !
b1000111 !
b11000111 !
b11010111 !
b10010111 !
b10011111 !
b1011011 "
b1001011 "
b10011011 !
b1000011 "
0_
0f
1w
1O
0V
1^
1g
0n
0v
1~
1G
00
1-!
0h
0.!
1p
10!
0$!
1+!
1S
0Z
0Q
1,!
0b
1[
0`
1Y
0/!
1z
1s
1x
1q
17!
1%!
0(!
0#!
0;!
04!
0&!
1|
1d
1T
1i
1/!
0x
0q
0%!
0,!
0T
1b
0[
0c
1\
1j
1a
0"!
1{
0<!
1t
0y
1&!
1)!
08!
0'!
1}
1e
1U
1l
1y
0t
0&!
1c
1:!
0\
0d
0r
1k
1(!
1#!
0|
0@
0B
0>
1=
1:
18
0&
0$
0(
1)
1,
1.
0U
1]
1u
1'!
1|
1d
0s
0)!
08
19
1<
1B
1>
0.
1-
1*
1$
1(
1m
0u
0'!
0]
0e
0}
1;
0<
0B
0>
09
0:
0=
1+
0*
0$
0(
0-
0,
0)
1}
1e
1=
1:
1)
1,
#60000
b1100011 "
b11100011 "
b11100001 "
b11011 !
b1011 !
b1001011 !
b1000011 !
b11110001 "
b11111001 "
0^
0g
1v
0~
0N
1_
1f
1o
1!!
10
0-!
1h
1.!
0p
00!
1"!
0{
1$!
0y
11!
0S
1Q
0/!
1s
1x
1q
0i
0q
0(!
0#!
0|
1%!
12!
1T
0:!
10!
1t
0$!
1y
0l
0t
1)!
1&!
0%!
1|
0}
13!
1U
1u
0&!
0=
1?
18
1<
0)
1'
1.
1*
0m
0u
1'!
1}
0;
0<
1B
1>
1=
0+
0*
1$
1(
1)
0'!
0B
0>
0$
0(
#70000
b11111101 "
b1000001 !
b10111101 "
b1000101 !
b10011101 "
b11000101 !
b10000101 !
b10001101 !
b10001101 "
0O
1V
1^
0v
1~
1W
0f
0o
0w
00
1X
1S
0Q
1`
1-!
0h
0c
0j
0a
0"!
1%!
1#!
0k
1i
0s
1q
0Y
0T
1:!
1a
0.!
1p
0i
0d
1k
1<!
0#!
1&!
1l
1t
0<!
1/!
0x
0q
0l
0U
0e
1'!
1m
1u
00!
1$!
0y
0t
08
0:
1B
1>
1;
1<
0.
0,
1$
1(
1+
1*
0m
01!
0%!
19!
0|
0;
0+
0u
02!
1>!
0&!
0<
0*
0}
0=
0)
03!
1?!
0'!
0?
1A
0B
0>
0'
1%
0$
0(
#80000
b10011101 !
b10000101 "
b10011111 !
b11000101 "
b10011011 !
b11100101 "
b11011 !
b1011011 !
b1010011 !
0_
1o
1w
1O
0V
0^
1g
1v
0~
10
1j
0/!
1s
1x
1q
1"!
0X
0S
1Q
1,!
0b
1[
0`
1Y
1r
0k
1i
11!
1%!
1(!
1#!
0r
1k
10!
1t
0$!
1y
09!
0(!
0#!
1`
0Y
1T
0:!
0-!
1h
1c
1\
0a
0z
0s
1l
12!
0>!
1&!
0)!
1z
1s
0%!
1|
1)!
1a
0i
1d
1{
1u
1U
1]
1m
13!
0?!
1'!
0{
0&!
0l
1<
18
19
1;
1?
0A
1B
1>
1*
1.
1-
1+
1'
0%
1$
1(
1}
1e
1=
1:
1)
1,
0'!
0m
0B
0>
0;
0$
0(
0+
#90000
b11100100 "
b1010010 !
b10100100 "
b1011010 !
0C
1^
0D
0w
00
0R
1-!
0h
0c
0j
0a
00!
0"!
1{
1$!
0y
1X
1S
1i
0d
1r
0k
1(!
1#!
0|
1%!
0`
1Y
1l
0z
0s
0)!
1&!
0e
0}
1j
1a
1"!
0{
0:
0=
0,
0)
1m
1'!
0r
1k
0(!
0#!
1;
1B
1>
1+
1$
1(
1z
1s
1)!
0"!
1{
1(!
1#!
0)!
