ALU/simulation/qsim/alu.msim.vcd
$comment
	File created using the following command:
		vcd file alu.msim.vcd -direction
$end
$date
	Wed Mar 31 10:34:05 2021
$end
$version
	ModelSim Version 10.1d
$end
$timescale
	1ps
$end
$scope module alu_vlg_vec_tst $end
$var reg 8 ! A [7:0] $end
$var reg 8 " B [7:0] $end
$var reg 3 # Sel [2:0] $end
$var wire 1 $ NZVC [3] $end
$var wire 1 % NZVC [2] $end
$var wire 1 & NZVC [1] $end
$var wire 1 ' NZVC [0] $end
$var wire 1 ( Result [7] $end
$var wire 1 ) Result [6] $end
$var wire 1 * Result [5] $end
$var wire 1 + Result [4] $end
$var wire 1 , Result [3] $end
$var wire 1 - Result [2] $end
$var wire 1 . Result [1] $end
$var wire 1 / Result [0] $end
$var wire 1 0 sampler $end
$scope module i1 $end
$var wire 1 1 gnd $end
$var wire 1 2 vcc $end
$var wire 1 3 unknown $end
$var tri1 1 4 devclrn $end
$var tri1 1 5 devpor $end
$var tri1 1 6 devoe $end
$var wire 1 7 Result[0]~output_o $end
$var wire 1 8 Result[1]~output_o $end
$var wire 1 9 Result[2]~output_o $end
$var wire 1 : Result[3]~output_o $end
$var wire 1 ; Result[4]~output_o $end
$var wire 1 < Result[5]~output_o $end
$var wire 1 = Result[6]~output_o $end
$var wire 1 > Result[7]~output_o $end
$var wire 1 ? NZVC[0]~output_o $end
$var wire 1 @ NZVC[1]~output_o $end
$var wire 1 A NZVC[2]~output_o $end
$var wire 1 B NZVC[3]~output_o $end
$var wire 1 C A[0]~input_o $end
$var wire 1 D Sel[2]~input_o $end
$var wire 1 E B[0]~input_o $end
$var wire 1 F Sel[0]~input_o $end
$var wire 1 G Sel[1]~input_o $end
$var wire 1 H Add0|auto_generated|_~0_combout $end
$var wire 1 I Equal0~0_combout $end
$var wire 1 J Add0|auto_generated|result_int[0]~1_cout $end
$var wire 1 K Add0|auto_generated|result_int[1]~2_combout $end
$var wire 1 L Equal0~1_combout $end
$var wire 1 M Equal0~1clkctrl_outclk $end
$var wire 1 N Result[0]$latch~combout $end
$var wire 1 O B[1]~input_o $end
$var wire 1 P Add0|auto_generated|_~1_combout $end
$var wire 1 Q A[1]~input_o $end
$var wire 1 R Add0|auto_generated|result_int[1]~3 $end
$var wire 1 S Add0|auto_generated|result_int[2]~4_combout $end
$var wire 1 T Result[1]$latch~combout $end
$var wire 1 U B[2]~input_o $end
$var wire 1 V Add0|auto_generated|_~2_combout $end
$var wire 1 W A[2]~input_o $end
$var wire 1 X Add0|auto_generated|result_int[2]~5 $end
$var wire 1 Y Add0|auto_generated|result_int[3]~6_combout $end
$var wire 1 Z Result[2]$latch~combout $end
$var wire 1 [ A[3]~input_o $end
$var wire 1 \ B[3]~input_o $end
$var wire 1 ] Add0|auto_generated|_~3_combout $end
$var wire 1 ^ Add0|auto_generated|result_int[3]~7 $end
$var wire 1 _ Add0|auto_generated|result_int[4]~8_combout $end
$var wire 1 ` Result[3]$latch~combout $end
$var wire 1 a A[4]~input_o $end
$var wire 1 b B[4]~input_o $end
$var wire 1 c Add0|auto_generated|_~4_combout $end
$var wire 1 d Add0|auto_generated|result_int[4]~9 $end
$var wire 1 e Add0|auto_generated|result_int[5]~10_combout $end
$var wire 1 f Result[4]$latch~combout $end
$var wire 1 g B[5]~input_o $end
$var wire 1 h Add0|auto_generated|_~5_combout $end
$var wire 1 i A[5]~input_o $end
$var wire 1 j Add0|auto_generated|result_int[5]~11 $end
$var wire 1 k Add0|auto_generated|result_int[6]~12_combout $end
$var wire 1 l Result[5]$latch~combout $end
$var wire 1 m A[6]~input_o $end
$var wire 1 n B[6]~input_o $end
$var wire 1 o Add0|auto_generated|_~6_combout $end
$var wire 1 p Add0|auto_generated|result_int[6]~13 $end
$var wire 1 q Add0|auto_generated|result_int[7]~14_combout $end
$var wire 1 r Result[6]$latch~combout $end
$var wire 1 s B[7]~input_o $end
$var wire 1 t Add0|auto_generated|_~7_combout $end
$var wire 1 u A[7]~input_o $end
$var wire 1 v Add0|auto_generated|result_int[7]~15 $end
$var wire 1 w Add0|auto_generated|result_int[8]~16_combout $end
$var wire 1 x Result[7]$latch~combout $end
$var wire 1 y Add0|auto_generated|result_int[8]~17 $end
$var wire 1 z Add0|auto_generated|result_int[9]~18_combout $end
$var wire 1 { NZVC[0]$latch~combout $end
$var wire 1 | Add0~1 $end
$var wire 1 } Add0~3 $end
$var wire 1 ~ Add0~5 $end
$var wire 1 !! Add0~7 $end
$var wire 1 "! Add0~9 $end
$var wire 1 #! Add0~11 $end
$var wire 1 $! Add0~13 $end
$var wire 1 %! Add0~14_combout $end
$var wire 1 &! Add1~1 $end
$var wire 1 '! Add1~3 $end
$var wire 1 (! Add1~5 $end
$var wire 1 )! Add1~7 $end
$var wire 1 *! Add1~9 $end
$var wire 1 +! Add1~11 $end
$var wire 1 ,! Add1~13 $end
$var wire 1 -! Add1~14_combout $end
$var wire 1 .! NZVC[1]~0_combout $end
$var wire 1 /! NZVC[1]~1_combout $end
$var wire 1 0! NZVC[1]$latch~combout $end
$var wire 1 1! Add1~10_combout $end
$var wire 1 2! Add1~8_combout $end
$var wire 1 3! Add1~4_combout $end
$var wire 1 4! Add1~6_combout $end
$var wire 1 5! NZVC[2]~6_combout $end
$var wire 1 6! Add1~2_combout $end
$var wire 1 7! Add1~0_combout $end
$var wire 1 8! NZVC[2]~5_combout $end
$var wire 1 9! Add1~12_combout $end
$var wire 1 :! Add0~6_combout $end
$var wire 1 ;! Add0~10_combout $end
$var wire 1 <! Add0~4_combout $end
$var wire 1 =! Add0~8_combout $end
$var wire 1 >! NZVC[2]~3_combout $end
$var wire 1 ?! Add0~0_combout $end
$var wire 1 @! Add0~2_combout $end
$var wire 1 A! NZVC[2]~2_combout $end
$var wire 1 B! Add0~12_combout $end
$var wire 1 C! NZVC[2]~4_combout $end
$var wire 1 D! NZVC[2]~7_combout $end
$var wire 1 E! NZVC[2]$latch~combout $end
$upscope $end
$upscope $end
$enddefinitions $end
#0
$dumpvars
b1111010 !
b1111000 "
b0 #
0'
1&
0%
1$
0/
1.
0-
0,
1+
1*
1)
1(
x0
01
12
x3
14
15
16
07
18
09
0:
1;
1<
1=
1>
0?
1@
0A
1B
0C
0D
0E
0F
0G
1H
1I
0J
0K
1L
1M
0N
0O
1P
1Q
1R
1S
1T
0U
1V
0W
0X
0Y
0Z
1[
1\
0]
1^
0_
0`
1a
1b
0c
1d
1e
1f
1g
0h
1i
0j
1k
1l
1m
1n
0o
1p
1q
1r
0s
1t
0u
0v
1w
1x
0y
0z
0{
0|
1}
0~
0!!
1"!
0#!
1$!
1%!
1&!
0'!
1(!
0)!
1*!
0+!
1,!
0-!
1.!
0/!
10!
01!
02!
03!
04!
15!
16!
07!
08!
09!
0:!
1;!
0<!
1=!
0>!
0?!
1@!
0A!
1B!
0C!
0D!
0E!
$end
#10000
b11111010 !
b11110010 !
b11110000 !
b11111000 "
b10111000 "
b10011000 "
b10010000 "
b10010100 "
b10010110 "
1O
1U
0\
0g
0n
1s
0Q
0[
1u
00
1'!
0P
0(!
13!
1<!
0V
1!!
1]
11!
0;!
1h
19!
0B!
1o
1/!
0t
0S
0d
1_
1y
0w
03!
1S
1)!
14!
05!
1Y
0=!
0_
0k
0q
1w
0e
1z
00!
0T
1`
0x
0*!
12!
0@
08
1:
0B
0>
0&
0.
1,
0$
0(
1T
1Z
0`
0l
0r
1x
0f
1{
01!
18
19
0:
0<
0=
1B
1>
0;
1?
1.
1-
0,
0*
0)
1$
1(
0+
1'
#20000
b10110000 !
b10010000 !
b10010100 !
b10011100 !
b10011110 "
b10011100 "
0O
1\
1W
1[
0i
0m
10
0'!
06!
0@!
1P
0!!
0]
13!
1~
0<!
0^
0Y
1_
1+!
11!
1#!
1;!
0p
1k
09!
0$!
1B!
1v
1q
1(!
03!
0S
1=!
1d
1:!
0,!
19!
0B!
0q
0%!
0w
0Z
1`
1l
1r
0)!
04!
1e
1-!
1A!
0.!
09
1:
1<
1=
0-
1,
1*
1)
0T
0r
0x
1*!
02!
0/!
08
0=
0B
0>
0.
0)
0$
0(
1f
0+!
01!
1;
1+
10!
1,!
09!
15!
1@
1&
0-!
#30000
b10001100 !
b1100 !
b11100 "
b1011100 "
b101100 !
b101000 !
b1010100 "
0\
1n
0s
0W
0a
1i
0u
00
14!
0:!
1]
0,!
19!
1B!
0o
1/!
1t
0(!
13!
0~
1<!
1^
1Y
0*!
12!
0=!
0e
11!
0#!
0;!
1p
0k
0y
1w
05!
0d
1-!
0v
0w
04!
1!!
1:!
01!
1$!
0B!
0z
00!
1Z
0f
0l
1x
1j
1e
1w
0"!
1=!
1%!
0@
19
0;
0<
1B
1>
0&
1-
0+
0*
1$
1(
0x
0{
0p
1k
1#!
1;!
0A!
1.!
0B
0>
0?
0$
0(
0'
1f
1x
1v
1q
0$!
1B!
0/!
1;
1B
1>
1+
1$
1(
1l
0w
0%!
1<
1*
1r
10!
1A!
0.!
1=
1@
1)
1&
0x
1/!
0B
0>
0$
0(
00!
0@
0&
#40000
b101001 !
b1010101 "
b1010001 "
b1101001 !
b1100001 !
b1010011 "
b10011 "
b1100101 !
b11011 "
1E
1O
0U
1\
0n
1C
1W
0[
1m
10
1|
0H
1'!
16!
1@!
0P
1(!
1V
1)!
0]
1,!
1o
1K
0^
0Y
0_
0v
0q
0}
0@!
0R
0K
03!
0A!
1S
14!
1^
1Y
02!
1d
0-!
1v
1q
1w
1N
0Z
0`
0r
1~
0<!
1A!
1X
0S
0d
1_
0j
0e
0w
17
09
0:
0=
1/
0-
0,
0)
0N
1T
1Z
1r
1x
0!!
0:!
0^
0Y
1j
1e
1p
0k
07
18
19
1=
1B
1>
0/
1.
1-
1)
1$
1(
0T
1`
0f
0x
1"!
0=!
1d
0_
0p
1k
0v
0q
08
1:
0;
0B
0>
0.
1,
0+
0$
0(
0Z
1f
0l
0#!
0;!
0j
0e
1v
1q
1w
09
1;
0<
0-
1+
0*
0`
1l
0r
1$!
0B!
1>!
1p
0k
0w
0:
1<
0=
0,
1*
0)
0f
1r
1x
1%!
1C!
0v
0q
0;
1=
1B
1>
0+
1)
1$
1(
0l
0x
0A!
1.!
1D!
1w
0<
0B
0>
0*
0$
0(
0r
0C!
0/!
0=
0)
1E!
1x
0D!
1A
1B
1>
1%
1$
1(
10!
1@
1&
0E!
0A
0%
#50000
b10 #
b1100111 !
b111011 "
b11100111 !
b10111011 "
b11000111 !
b11000110 !
b10111111 "
b10000110 !
b10001110 !
b10111101 "
0O
1U
1g
1s
0C
1Q
1[
0i
0m
1u
1G
00
0'!
0(!
13!
1<!
1+!
1/!
0&!
17!
0|
1?!
1R
1K
1S
0)!
04!
1:!
1_
0p
1k
09!
0$!
1B!
1v
1q
1y
0w
0.!
0o
1c
1]
0I
1H
1(!
03!
1)!
14!
0>!
0,!
19!
06!
1}
1@!
0S
12!
0%!
0y
1w
0/!
1j
1e
0_
1J
0K
00!
1N
1T
1`
1l
1r
0x
0)!
04!
02!
1-!
0<!
1z
0k
1K
0@
17
18
1:
1<
1=
0B
0>
0&
1/
1.
1,
1*
1)
0$
0(
0T
1x
10!
1f
0`
0N
12!
15!
1.!
08
1B
1>
1@
1;
0:
07
0.
1$
1(
1&
1+
0,
0/
1{
0l
1N
05!
1/!
1?
0<
17
1'
0*
1/
00!
0@
0&
#60000
b10101101 "
b11101101 "
b10001010 !
b11100101 "
b11000101 "
b1000101 "
b11001010 !
0W
1m
0\
0b
0g
1n
0s
10
0(!
13!
0~
1<!
1^
1Y
1$!
0v
0q
14!
0:!
0]
1*!
02!
0"!
1=!
0c
11!
1#!
1;!
0h
1o
0-!
1%!
0t
04!
1!!
1:!
0%!
1y
0+!
01!
0;!
0j
0e
0B!
1k
1v
1q
0.!
1Z
0r
0=!
0z
1,!
09!
1p
0k
0w
19
0=
1-
0)
0f
1l
1r
1-!
0v
0q
0;
1<
1=
0+
1*
1)
0{
0l
0x
1.!
1w
0?
0<
0B
0>
0'
0*
0$
0(
0r
0=
0)
1x
1B
1>
1$
1(
#70000
b11001000 !
b11001001 !
b1010101 "
b11001101 !
b1011101 "
b1111101 "
b10001101 !
1\
1b
1g
1C
0Q
1W
0m
00
1)!
14!
0!!
0:!
1]
0*!
12!
1=!
1c
1+!
11!
1;!
1h
1&!
07!
1|
0?!
0R
0K
1'!
16!
0@!
0X
1S
1(!
03!
1~
0<!
0^
0Y
0,!
19!
0$!
1B!
1v
1q
02!
1"!
0=!
01!
1j
1e
09!
0p
1k
0'!
06!
1@!
1X
0S
0(!
13!
1^
1Y
0)!
04!
1:!
0-!
1%!
0w
0N
1T
0Z
1r
0#!
0;!
0k
0q
1(!
03!
18!
0^
0Y
1)!
14!
0d
1_
12!
0.!
07
18
09
1=
0/
1.
0-
1)
1f
1l
0T
1Z
0x
1$!
0B!
0)!
04!
1d
0_
02!
0e
1;
1<
08
19
0B
0>
1+
1*
0.
1-
0$
0(
0l
0r
0Z
1`
0%!
12!
15!
1e
0<
0=
09
1:
0*
0)
0-
1,
0`
0f
05!
1D!
0:
0;
0,
0+
1f
0D!
1;
1+
1E!
1A
1%
0E!
0A
0%
#80000
b10011101 !
b11101 !
b10101 !
b11111101 "
b10111 !
b11101101 "
b10011 !
b11100101 "
b1010011 !
0\
0b
1s
1Q
0W
0[
1a
1m
0u
10
1!!
0]
1*!
0c
1t
16!
0}
0@!
1S
0(!
13!
0~
1<!
1^
1Y
0d
1_
0j
0e
19!
1B!
1q
0y
1w
0"!
1=!
11!
0w
08!
1~
0<!
1)!
14!
0:!
1k
1z
1T
1Z
1`
0f
1r
1x
1#!
1;!
1:!
02!
18
19
1:
0;
1=
1B
1>
1.
1-
1,
0+
1)
1$
1(
0x
1l
1{
0B!
0B
0>
1<
1?
0$
0(
1*
1'
#90000
b11100100 "
b1110011 !
b11000100 "
b11110011 !
b11111011 !
b1000100 "
b1010100 "
b1011100 "
1[
1i
1u
0E
1\
1b
0g
0s
00
0!!
1d
0_
0+!
1p
0k
1w
17!
0|
1?!
0H
1]
0*!
12!
1"!
0=!
1c
0h
0t
1=!
1,!
09!
0v
0q
1}
1@!
1K
0d
1_
01!
0#!
0;!
1k
1y
0w
0`
0l
1x
1-!
1w
0~
1<!
1j
1e
1B!
0z
0:
0<
1B
1>
0,
0*
1$
1(
0r
1N
1`
1l
0x
1.!
0:!
0k
0=
17
1:
1<
0B
0>
0)
1/
1,
1*
0$
0(
1x
1f
0{
1B
1>
1;
0?
1$
1(
1+
0'
0l
0<
0*
#100000
b11101011 !
b11101001 !
b11101101 !
b11001101 !
b1001101 !
b11011100 "
b11001100 "
b11000100 "
0\
0b
1s
0Q
1W
0a
0i
0u
10
0)!
04!
1!!
1:!
0]
0"!
0c
1t
06!
0@!
0S
1(!
03!
1~
0<!
0^
0Y
0e
1+!
11!
1#!
1;!
0p
1k
0w
1*!
02!
0=!
1d
0;!
1e
0y
1w
14!
0!!
0:!
0,!
19!
0B!
1v
1q
0T
0Z
0f
1l
0x
0+!
01!
1>!
0j
0e
1z
1=!
0-!
0w
08
09
0;
1<
0B
0>
0.
0-
0+
1*
0$
0(
1f
1x
1r
1,!
09!
1p
0k
0>!
0.!
1;
1B
1>
1=
1+
1$
1(
1)
0f
1{
0x
1-!
0v
0q
0;
1?
0B
0>
0+
1'
0$
0(
0l
1.!
1w
0<
0*
0r
0=
0)
1x
1B
1>
1$
1(
#110000
b10000100 "
b1001100 !
b1100 !
b10000101 "
b1110 !
b1010 !
b10001010 !
0C
1Q
0W
0m
1u
1E
0n
00
0&!
0K
16!
1@!
1S
0(!
13!
0~
1<!
1^
1Y
0$!
1v
1q
0-!
1%!
1y
0w
1H
0o
06!
04!
1!!
1:!
0_
0%!
0y
1w
0.!
0z
1R
1K
0v
0q
0N
1T
1Z
1r
0x
0=!
1z
0/!
0S
1y
0w
07
18
19
1=
0B
0>
0/
1.
1-
1)
0$
0(
0`
1x
0{
1N
0r
0z
0:
1B
1>
0?
17
0=
0,
1$
1(
0'
1/
0)
1{
10!
0T
0x
1?
1@
08
0B
0>
1'
1&
0.
0$
0(
0{
0?
0'
